<?xml version="1.0" encoding="utf-8"?>
<!-- Svg Vector Icons : http://www.onlinewebfonts.com/icon -->
<!DOCTYPE svg PUBLIC "-//W3C//DTD SVG 1.1//EN" "http://www.w3.org/Graphics/SVG/1.1/DTD/svg11.dtd">
<svg version="1.1" xmlns="http://www.w3.org/2000/svg" xmlns:xlink="http://www.w3.org/1999/xlink" x="0px" y="0px" viewBox="0 0 1000 1000" enable-background="new 0 0 1000 1000" xml:space="preserve">
<metadata> Svg Vector Icons : http://www.onlinewebfonts.com/icon </metadata>
<g><g><g id="bubble"><g><path fill="#FFFFFF" d="M316.6,377.2h368.3v-61.4H316.6V377.2L316.6,377.2z M316.6,530.7h368.3v-61.4H316.6V530.7L316.6,530.7z M738.3,70.9C501.9-61.3,203.5,23.5,71.8,260.5C-29.7,443.1-2,662.5,124,814.2L84.7,964l150.4-51.6c8.7,5.6,17.3,11.5,26.5,16.6c236.4,132.3,534.8,47.4,666.5-189.6C1059.7,502.6,974.7,203.2,738.3,70.9z M876.5,708.9C760.9,916.1,498.7,990.3,291,874.6C83.3,759,8.7,497.2,124.4,290.1C240,82.9,502.1,8.7,709.8,124.3C917.5,240,992.1,501.7,876.5,708.9z M316.6,684.1h368.3v-61.4H316.6V684.1L316.6,684.1z"/></g></g></g><g></g><g></g><g></g><g></g><g></g><g></g><g></g><g></g><g></g><g></g><g></g><g></g><g></g><g></g><g></g></g>
</svg>
