<?xml version="1.0" encoding="utf-8"?>
<!-- Svg Vector Icons : http://www.onlinewebfonts.com/icon -->
<!DOCTYPE svg PUBLIC "-//W3C//DTD SVG 1.1//EN" "http://www.w3.org/Graphics/SVG/1.1/DTD/svg11.dtd">
<svg version="1.1" xmlns="http://www.w3.org/2000/svg" xmlns:xlink="http://www.w3.org/1999/xlink" x="0px" y="0px" viewBox="0 0 1000 1000" enable-background="new 0 0 1000 1000" xml:space="preserve">
<metadata> Svg Vector Icons : http://www.onlinewebfonts.com/icon </metadata>
<g><path fill="#FFFFFF" d="M500,10C229.3,10,10,229.3,10,500c0,270.6,219.3,490,490,490c270.7,0,490-219.4,490-490C990,229.3,770.7,10,500,10z M500,962.9C244.4,962.9,37.1,755.6,37.1,500S244.4,37.1,500,37.1c255.6,0,462.9,207.2,462.9,462.9S755.6,962.9,500,962.9z"/>
<path fill="#FFFFFF" d="M457.5,644.9c-0.3-9.2-0.4-16.1-0.4-20.6c0-27,3.9-50.4,11.5-70c5.6-14.8,14.7-29.7,27.2-44.8c9.2-11,25.7-27,49.6-48.1c23.8-21,39.4-37.8,46.5-50.4c7.1-12.5,10.7-26.1,10.7-41c0-26.8-10.5-50.4-31.4-70.6c-20.9-20.3-46.6-30.4-77-30.4c-29.3,0-53.8,9.2-73.5,27.6c-19.7,18.4-32.5,47-38.7,86.1l-70.8-8.4c6.4-52.3,25.3-92.4,56.8-120.2c31.5-27.8,73.2-41.7,125-41.7c54.9,0,98.7,15,131.3,44.8c32.7,29.9,49,66,49,108.3c0,24.5-5.8,47.1-17.2,67.8c-11.5,20.6-34,45.8-67.4,75.4c-22.4,20-37,34.6-44,44.1c-6.9,9.5-12,20.3-15.3,32.5c-3.3,12.3-5.2,32.1-5.7,59.7H457.5z M453.3,783.1v-78.5h78.5v78.5H453.3z"/></g>
</svg>