<svg xmlns="http://www.w3.org/2000/svg" viewBox="0 0 800 800" width="800" height="800">
	<style>
		tspan { white-space:pre }
		.shp0 { fill: none;stroke: #ffffff;paint-order:stroke fill markers;stroke-width: 40.2 } 
	</style>
	<path id="모양 1" class="shp0" d="M772,400.5c0,-205.44 -166.06,-371.5 -371.5,-371.5c-205.44,0 -371.5,166.06 -371.5,371.5c0,205.44 166.06,371.5 371.5,371.5c205.44,0 371.5,-166.06 371.5,-371.5z" />
</svg>